{
  "project_info": {
    "project_number": "914784492611",
    "project_id": "soulrces",
    "storage_bucket": "soulrces.appspot.com"
  },
  "client": [
    {
      "client_info": {
        "mobilesdk_app_id": "1:914784492611:android:1002a3a8a3213e159488f6",
        "android_client_info": {
          "package_name": "com.example.soulrces"
        }
      },
      "oauth_client": [
        {
          "client_id": "914784492611-4tps3i71fhqfh71pq369c2onfrp8phi5.apps.googleusercontent.com",
          "client_type": 1,
          "android_info": {
            "package_name": "com.example.soulrces",
            "certificate_hash": "33cb0ec4093eb296a859c3206c190c3e54fd63fc"
          }
        },
        {
          "client_id": "914784492611-q9tkqkpt83tg3con5fqnmc418bqid2lj.apps.googleusercontent.com",
          "client_type": 3
        }
      ],
      "api_key": [
        {
          "current_key": "AIzaSyCQsNGhoOF5NOr-z-nFYyGr5G8267vYWOs"
        }
      ],
      "services": {
        "appinvite_service": {
          "other_platform_oauth_client": [
            {
              "client_id": "914784492611-q9tkqkpt83tg3con5fqnmc418bqid2lj.apps.googleusercontent.com",
              "client_type": 3
            }
          ]
        }
      }
    }
  ],
  "configuration_version": "1"
}